{
	"nome": "John Wayne is a bad guy, look this name! i have goosebumps onli by hearing this name, every time you hear this name just run! so you could have some chance to escape alive.",
	"cpf": "56231781461",
	"estado": "1",
	"cidade": "Campo Largo"
}

